<?xml version="1.0" encoding="UTF-8" standalone="no"?>
<svg
   xmlns:dc="http://purl.org/dc/elements/1.1/"
   xmlns:cc="http://creativecommons.org/ns#"
   xmlns:rdf="http://www.w3.org/1999/02/22-rdf-syntax-ns#"
   xmlns:svg="http://www.w3.org/2000/svg"
   xmlns="http://www.w3.org/2000/svg"
   xmlns:xlink="http://www.w3.org/1999/xlink"
   xmlns:sodipodi="http://sodipodi.sourceforge.net/DTD/sodipodi-0.dtd"
   xmlns:inkscape="http://www.inkscape.org/namespaces/inkscape"
   width="512"
   height="512"
   version="1.1"
   viewBox="0 0 512 512"
   id="svg22"
   sodipodi:docname="runescape.svg"
   inkscape:version="0.92.4 (5da689c313, 2019-01-14)"
   inkscape:export-filename="runescape.png"
   inkscape:export-xdpi="96"
   inkscape:export-ydpi="96">
  <title
     id="title3863">Runescape</title>
  <metadata
     id="metadata28">
    <rdf:RDF>
      <cc:Work
         rdf:about="">
        <dc:format>image/svg+xml</dc:format>
        <dc:type
           rdf:resource="http://purl.org/dc/dcmitype/StillImage" />
        <dc:title>Runescape</dc:title>
        <cc:license
           rdf:resource="https://opensource.org/licenses/BSD-2-Clause" />
        <dc:date>2020-04-10</dc:date>
        <dc:creator>
          <cc:Agent>
            <dc:title>Carlos Donizete Froes [a.k.a coringao]</dc:title>
          </cc:Agent>
        </dc:creator>
      </cc:Work>
    </rdf:RDF>
  </metadata>
  <defs
     id="defs26" />
  <sodipodi:namedview
     pagecolor="#ffffff"
     bordercolor="#666666"
     borderopacity="1"
     objecttolerance="10"
     gridtolerance="10"
     guidetolerance="10"
     inkscape:pageopacity="0"
     inkscape:pageshadow="2"
     inkscape:window-width="1366"
     inkscape:window-height="704"
     id="namedview24"
     showgrid="false"
     inkscape:zoom="1.0019531"
     inkscape:cx="256.00001"
     inkscape:cy="254.99878"
     inkscape:window-x="0"
     inkscape:window-y="27"
     inkscape:window-maximized="1"
     inkscape:current-layer="layer1" />
  <g
     inkscape:groupmode="layer"
     id="layer3"
     inkscape:label="RS-03" />
  <g
     inkscape:groupmode="layer"
     id="layer2"
     inkscape:label="RS-02" />
  <g
     inkscape:groupmode="layer"
     id="layer1"
     inkscape:label="RS-01">
    <g
       id="g3825">
      <g
         id="g3807">
        <g
           id="g3749"
           style="">
          <path
             inkscape:connector-curvature="0"
             id="path2"
             d="M 257.61404,15.77193 A 245.61404,245.61404 0 0 0 12,261.38596 245.61404,245.61404 0 0 0 257.61404,507 245.61404,245.61404 0 0 0 503.22807,261.38596 245.61404,245.61404 0 0 0 257.61404,15.77193 Z"
             style="opacity:0.2;stroke-width:8.77193069" />
          <path
             inkscape:connector-curvature="0"
             id="path4"
             d="M 257.61404,7 A 245.61404,245.61404 0 0 0 12,252.61403 245.61404,245.61404 0 0 0 257.61404,498.22807 245.61404,245.61404 0 0 0 503.22807,252.61403 245.61404,245.61404 0 0 0 257.61404,7 Z"
             style="fill:#c87137;stroke-width:8.77193069" />
          <path
             inkscape:connector-curvature="0"
             id="path18"
             d="M 257.61404,7 A 245.61404,245.61404 0 0 0 12,252.61403 a 245.61404,245.61404 0 0 0 0.18846,3.5636 245.61404,245.61404 0 0 1 245.42558,-240.4057 245.61404,245.61404 0 0 1 245.42557,241.91333 245.61404,245.61404 0 0 0 0.18846,-5.07123 A 245.61404,245.61404 0 0 0 257.61404,7 Z"
             style="opacity:0.1;fill:#ffffff;stroke-width:8.77193069" />
        </g>
        <g
           id="g3783"
           style="">
          <g
             id="g3752">
            <image
               width="512"
               height="512"
               preserveAspectRatio="none"
               xlink:href="data:image/png;base64,iVBORw0KGgoAAAANSUhEUgAAAgAAAAIACAYAAAD0eNT6AAABhGlDQ1BJQ0MgcHJvZmlsZQAAKJF9 kT1Iw0AcxV/TSqVUHAwo4pChOlmQKuKoVShChVArtOpgPvoFTRqSFBdHwbXg4Mdi1cHFWVcHV0EQ /ABxcnRSdJES/5cUWsR4cNyPd/ced+8ArllVNCs0AWi6bWZSSSGXXxXCrwghAh6DSEiKZcyJYhq+ 4+seAbbexVmW/7k/R59asBQgIBDPKoZpE28QT2/aBuN9Yl4pSyrxOfG4SRckfmS67PEb45LLHMvk zWxmnpgnFkpdLHexUjY14inimKrplM/lPFYZbzHWqnWlfU/2wmhBX1lmOs0RpLCIJYgQIKOOCqqw EadVJ8VChvaTPv5h1y+SSyZXBQo5FlCDBsn1g/3B726t4mTCS4omgZ4Xx/kYBcK7QKvhON/HjtM6 AYLPwJXe8deawMwn6Y2OFjsC+reBi+uOJu8BlzvA0JMhmZIrBWlyxSLwfkbflAcGboHImtdbex+n D0CWukrfAAeHwFiJstd93t3b3du/Z9r9/QB1OHKo07WJagAAAAZiS0dEAP8A/wD/oL2nkwAAAAlw SFlzAAAN1wAADdcBQiibeAAAAAd0SU1FB+QEChQYKpmz77MAACAASURBVHja7d3pdtvIsibQ4Ci7 znn/B+3bXdZEsn8QcZmCOUogmQnsvRaXXC5XWSIBxJeBzEQEAAAAAAAAAAAAAAAAAAAAAAAAAAAA AAAAAAAAAAAAAAAAAAAAAAAAAAAAALRq5i2AZs/dfM27r9uI+PTWANdYegugqYI/716L4tfz7s+8 CgCAAADjKPrzXtFf9gJAdvE+I2LnLQMEAGh/pJ8Ff9Ub8fdl69/oHxAAoEHzrtjna1kEglN2XQDY dF8BBABopOgvImLdnY/Z4r9lgu4mIj68lYAAAPUr2/vL+HpP/5biv+sCgPY/IABA5efcMv6+tx/x vWW5m9D+BwQAqFJO6suin6P++Q//v0b/gAAAlcrCv+5eiwEKfz8AbLzNgAAA9Yz6FxHx0r2Wxe8P JUf/2v+AAAAVyFn9L7Fv999ry+3PLgTYAAgQAOCJch1/jvgXcfus/mvsulcGAAABAJ5gFl/v81+z gc9PZfvf6B8QAOCJo/6y+N9TFvyP2N/7FwAAAQAeLCf5rbsQMH/Q37stAgCAAAAPki3/X10AWDz4 7zf7HxAA4AnF/yUifsfhXv8j7SLiPUz+AwQAKiyQWajGeL68FKP+e0/0O1b8N10AcO8fEACowiIO 98E/uyI1plCTy/tyN7940ujf0j9AAKAK5Va3uenN64gCwDy+buqzeNL3kaN/k/8AAYCnj4pzx7ty FvwmHjcb/t7y5/sVwzy8Z6gAACAA8LRR8SoOs+BnvWCQz7Vv+T51LvH7HYf7/c+0De1/QADgifJe +Lnlb7PGA0CGm18VFP6Uo3+T/wABgIePiPNe+LIY5Y/JrCj+6+Lne/bPuTH6BwQAnlEUy8J/zfPs H1Ew53GYc7Ab6OfMzsaqsoCTo38BABAAeEjhz6V95WNtZ0/4PvI1P/J6i5+3xnOm/6947Ja+19gq /oAAwKPMe4X/1uPku8V41iv6ZaFf9L7mCP2nT8Vb9Ip/bbc1tP8BAYCHyNnvufTtXgVxdmaEv+gV +nO77uWf237zZ11HxD9Rx0z/YyHqIzz2FxAAuKOcAPc7vk6A+27x2p34O44V+rLg33qb4bvt+nl8 XeZXo11o/wMCAHce9eeyt+8U4WOFfhnH79svit/vdwKOdQiuKeTzH/y8tY38y+L/bvRP5VZdQLU7 pQBAY/Jef+7mN8Qe91n8/xNf2/uzI8FiNtDPcMvGQ/3H+NZa/Lexn+Bo9E/NA4ff3bGaYVUQEABo 5OTNh9ssY9g2+CIe98CcWwJAC8U/A8Bn2PiHeuUtw1UR+t/Co6oFAKo/cbMFnsV/NvD//9E/zzVr 9rP4/4q6NzHaFSMqF1Jqvo6s4/gtvtcYbn8OBAAGHC2Xo+AxPLSnnGewuVD8f8dz9jL4zuj/3eFK xRbxddlsdgRyMu9ruCUgAFDVCbvuiuBqhMFmdkXxrz3wlE/8M/qn5vMti/3syL/LJcR/QidLAODp yv3tFyP8+U6tBFh2hf8l2nhugdE/LQ0mLtWWf7qvr+Ex1gIAD5f36cotbmcj/DnL5YW7XvFfN/Rz G/3TwjVlcaF2zIqgkLcaX7tga16AAMADU3r5cJsxX5TKRxCXxb/m2f6l3PPfzH9qv65cez2Zxddd POfhloAAwN2L4TK+PsFvNoGfuXxOQDnJsZWffePiSCM149ZrSj5sa16EABtcCQDcoRDmQ3xaK4A/ /bnLkUkLs/1TXgRdFGlh9L/8Zt3IgcmQT/FkgA+U8XiJ/cSb2te63/N4PjU7uWafsZ8xbfRPzcpb it8N6vMiCOwc8zoADON3HCb7TdF3nglQSwfg1eifymV3caiasS4CwatjXwDg+ydmrnNvbeQ79PvQ mm0clv3ZMIXaa8VyoJA9K/6febvOcy+ewC2A9otePs9+qJOTx438t3FYHgU1X2fyuSGLgf+/5TbC O50AHQBuC3C569bM29Hc6P8jrI2mjevMvZYSl48Oz06AyYECABfkZJqVt6LJ0X8u+/v0dlD56H91 50FGPwTMBGMBgMsBYKxb+05p9A+1j/4ftaS4/3e9evsFAI4n5oXPr1lZ/E38o/ZBxr1H/8eubeX2 3X98DAIAf58kS6P/JuWsf61/WggAWYwfeW3L2vS7+/WbsCwAcLAIE/9akzOcc5KTCxq1F/9yjtGj rzWz+LpMUGgWACg+tymv+W999G+9My0MMh49+j8WAlbxdVtvIWDglEebo3/t/7ZG/7nm345/1G5W jP5reKbGMvbLnX8ZtOoA+Mxs+tNa8d91I38T/2hlkLGqbJBR1qpXnQAdgKmq7cTkMg/7oaXR/zrq 3F8kNz777RqoA2D0Tws2sZ/4Z8RCK9eY3PWvtjlGuXXwS68T4JaaADCZZC75tlX8s/XvIkUL15ja H6fdDwG2DhYAJmFecTLnb7uw5p+2LBoIABkCFkUICCFAAJhCMl8p/s2N/j+8FTR0jWlpf5FcqigE CACjT+aP2o+bn4/8I8z6xzXm0TVsJ3ALAGOTrf+1t6Kp4m/iHy1dY3Lmf4sTjMuuxTasthEARvYZ vRj5N2Mb+yV/RiK0Nvpv+RpTTgz8I3xf/6ZR94mZyXwWQkDto/+y+LsXSSs1YDWCwWC5OsCOgToA ozgx1/H8/bi5PgBk6999f1qqAWO5xpzaJwABoLkDedUdyNb912/bjfrd96cluexvNaKfaVbUtezC OScFgOY+l1/R7qScqY38yw1/oKXrzFivMXkNzVtzunInEiD1fSb/Ca3/lkb/b7FvN7rI0NJ15iXG PcF43r12ugA6ALXL1tU/XfE34a+dDsA2TPqjzdH/bAI/5+/u13987DoAtSbVdXegZvEXANoJbvkS BGjluv87pnGLMScGLuJwuw4BoKrPIJeuZNtf8W8vACzi0G4UAqhZtv5r3/N/6BAwi0PHDgHg6XKi ykuY8DeWUUZ+hoIAtV7z/5no9aY8N4UAAeCpBWMV+zbcSxcEFP9xdAKWxXklBFDbMbruBh1T6zTO iqAeYWWAAPDEFLqO/Uz/KbXhpnSRWRSfqwsNtVgWo/+pXnPK4LOZekAXAB5/Av7qTsJlUTQYZxgo 5wWYfMSzC1/ONZr6JOPy55/08kAB4HEHXM7yL3f3U/zHf5GZF5+3VQI8yyq+7pE/9QCQewRMOgQI AI852MpZ/gsJfLIhwFJBnnWdz2uQVUZ/n5uTnRQoANzXvDvp+sWfaV5oyqVIQgCPsg5PyLvUCZjk XB0B4P6peyobbnD5YrMQAnjCdSgHIAYfp9+jnKezndoPzn1G/i9xmOznxKM8NhZTHnXwUC9G/xeD ef9WwGSCuQBwnwOqLP4hAHCiG7DoLjhWCHCv6/vUl/3dck5ObsWOAHCfxP27OOmceBy72JTdAJ0A 7iFXHZn4d30AmE0pBAgAw8p1/h7lyy0hwO0A7nEt+ie+bk/N9SFgEuejADD86N/uftwaAhbhQSUM Zx4eLvaTczJfo98pUAAY9r0045/vXnDsUc5Qx9OqGP0r/t/vBOS5ONoQIAAY/VPPqK3sAlgiyHfk bchfrkODhPJRLw0UAIbzK0z8Y5iRR0TEh7eDbxw/ueW4LuRw9XG0IUAAGO7E+x0e68swI49ZTHBT En4s9/u36c9w52IZAkbXlVOshh25OekY4lhaxv52kuOJW67lq7Dm/x7v6zpGurJLABg2LcJQx9Iq dOi4bfS/dszcRQby0e2mKAAMd9GGIY+n3CnQscUli67423b8fudjhoBRBSwBQAeAeo8nozmuHf1b fvyYkDWqW3MOGMWf+uwcW9xQmCw/ftx7nXu9CADAXUPAZ9gPgPODj5cw8e/RNXM0yywFgGEu1C7S DGkbEW8CABeKf96XtgLpce957rXwawz10zOihQDqKvyb2G8C9BYeE8z5wdsoZ6Y3EAKiCwCbiHhv +drv4IHnBMYyOO56xf9D8edCEcplf+aJPK92rrvz9FMAcEGHWwt++frsXp4DwLXFx/X7uV2AdXfO NrtLoANICOD+x8OuGCnkBWNTFHvHDtea90b/PLd+vsRhzo4AAPyvzzi09LPwC4v8RBZ/E7jr+Ty2 vfNbAJjgaC9fUrljIScHvYe2PsOx4199cjXGOiL+CADTvvDjGNhExGtR/B0XDFVo1mHHvxo/l9yM KTt9zXAgDXfh9+hWx8C2K/yv3cVA8WfIwZod/+qto8tocG8AAWC4i7/JXGy74m8JH0Nfp3PNv2t2 3Z9RU7syOpiGDQFM+/Nvek0wVerv+Ee9n1P5XAYBQAAA+JF8AI0nQ7bhVzS0SkMAGE6zm0Ew6CjA OcWQ1+d81G8eX9R9/udkzUUrBxjDdQDMA5j2yb8IS7QY7nhahdZ/i1athAAH1nCs9XbBnocd2hjG ohj92++/LXkdWAkAOgBMKwTYqIWhCogd/9q1jAb2bDCxZFgu/gLALA4rAuwNwXesYj+ZrKklZfx1 LciBYbUrg6TLYTsAbgMQ0dhMYKorHJ70N54uQNVzOHQAhv/AbdZBvxMA1/rdBUg7/o3LhwAwfrkl pPdV8S9DgFsBXDuA+McgYnTXgnkXAKq7DihUwweAlfROLwRshQCuuBb/ikPL2PVjXNeBbVS4V4wA MPyHvQoTATkEwrkQwJXXjX8MHkZ9LaiuCyAADC87AFp45MU9zzO7RXLqmpGjf8V/vNeATW3XAAHg Pu+peQCUJ38+0GUnBHBkZPgSDT5KlpvlksBqugCK1H1O6FwNAMc6AZaLksdEFn+3DacxOKxqECAA 3O9C74SmPCYyHM6FADrrOGz4Y/Q/netA3goQAEac9CzloX/y55KgcnmgEDBNyzhsGOU6PK3rwDb2 twKefu478Ia3C/sBcF0QiLBR0BTN4zDpz6z/aXYBtjWc+wrU/T7k7AKEE5wjx0feDrA8cHrF331/ dlHB7oACwH1P9HV4lCfnQ0AuDxICpnNN+K+R/+SPg1lUsCJAALhfusulX050Ll0MFjoBkyn+v0Nn kIN3AWDco7yVk50zx0cWh3l4bsDYi38549/1wLk/iyfvDigA3LcLkO+xE55LF4L+6gDGU/xfwnI/ jp/3uSJAABhpCJgJAVx5QShDwC4sEWxdPuBH8efcef+0LoAAcH/b+PpQGCGASyHAjoHjKP5G/lw6 3xdxmAy4e8ZByv27ANviwi4EcE0IyCViQkB7n98q9pP9fodJwFw3SHzKigAB4HEf8LZ4z40GuGQe hydLRpgX0ErxX8f+sb4vxXkuAHDpXP+MJ8wFEAAeHwK28XUnOBcHjhWS/LooXoJAvZbdiD9b/jPn Nzec79t4wlJgAeA5ISCfBjVzoeDMRaFcIZAhIIOj2wJ1KO/1v8ThGSBu9XHLuZ5PCdw8+uDlsXZF CCgT3+7EKBD6IaA/l0QYeLy8RZPFfx1W+vCzc3wTD35UsADw3G7AJvb3fTIMlEu/dmcOFASBHGma T/L4z2AZh419foVlvjTaBRAA6ugIbGK/FvTzTCAo//ylNeIuRNMIAqvu5dHTj3nPF0Xh/x2e9cHw x9g2HviQIAduGxf6eXEB6v9eOQrsP2qWaQTItC2CZH41aXCYgdK6e63CBF7udy6/R8T/PKoL4ABu Kwyc+tqfMFYGg/7LZz7uIJDdof4tpnwJBNfJvRjKLotJu9zbR0T8GxGvAgA/DQj9QJD3jst7lo6B 8QaCDAJlICiDwDZsNNQv+nmO5HmyCHMteJxtRLxFxP95xF+29H6PcgR4KiD0Z5KvwgSmMQfC/MzL Y2Pbe216QaCce7KbwHs0750XZeEXkHnGMZnH4OYRfxnTlBe7dS8IML3AuIm/96jYHgkD16xSqfnC Whb92Ymi7xzg2Taxvw3w597nmQBATnB66b46LgSD8tXvEpwKBv1Q8OyAcK7gL3oF3/FObefgR+xv A9y1C+AWAJvYTzj5jMODTJi2svW96B0TWdj7tw2OBYRzG13ds9iXbf2czGcSLC3JruwmHnDiQN57 +m9YV87pkcm539ud6CL0JyMe+3PnQsLsSDApJ7HOev/cn+A6c92jQf+3G5zdLQToAFBevD+7A+6f MAGK6wYMsxtCwaV/d8vfP7vyK7TcBXgXAHhkCHiPw9PM7BTJT4PC7Mrj7rsBBMYqJ6d+xp1uobnA c+xinMXfPVMeFRiuecGUzOPODwgSALiUPl14AZ4nd/O8S8KAYwfcR9g2FqCGgdhd6ABwSt4GME8E 4HnKDboEAB4mA4DbAADPGYjlbp2D3wZwC4BzqfNu954AuGkgNrjaA0BuTiOoPEc+ThaA58hdLQfv xNZ+C2DdvebhsaXPPPg8IwDgeQPhu9wGqD0A/Opey2JEynMCgLXYAM+R22h/DPk/rX2Gd7b/y/bH H8fCww+6TbgNA/DMLsDgA/aaL+qLovDnXIDfsd+nXjF6nJwMCMDjbWK/RfvbPYpsrWknn1E/L35v XnzP5gQ8Nnnm8wEAuL98QNtb9/oY+i+oNQDMu9F+fw16+bjPfIPsVveYz8M8AIDHFP7oCv7din9E vXMAZnF6A5pZNxqN4t9rUd+XbgvAY4p/jvz/xL71f7dBbo0BoNyC9txoc1WMSP+EFQL3PiAFAIDH FP9/u+J/1+turQHg2u9rEftlgrPuDRMC7ntgAnC/6+xHUfzvrsYAML/h+8r5AC/dP/8JtwPu3QUw BwBgWNuu6L/Gne73t9QBWN3458sQ8NqFACPW4UMAAMNfW7P4373tX3MAyPv/i2/8d2UIyFmTihYA NQ+q3p9Vs2oLANn+/06bOcPDS/HfCwEA1OqzGPk/fEl7jQHgp3sTCAEA1D763z6z+GfBHVsAyG7A OvbbBq8dawBUZBv7tv9rPHEzu9o6AN+5/38qAER83SvgPewa+JP30/MXAIYp/u+xX7X21JpUUwCY d6+hlpnNip/xdxEC7BXwvffSNsAAP5Nr/d+igiXrNQWA8ul/Qxau7AREEQLsFXD76F/xB/iZfLLf Rw3fTG0B4B5t5mO3A0IIuMk83AIA+Ils/VdzO7rGDsA9R7KropjZNfD6920ZbgEAfMeuGHRW1YGu aVT3qFFmPj/gP1Hv0xBrG/17nwB+FgLu9ljf1jsA92r/nxvV5vPtn7oOs5HRvwAA8H1Vtf5rDQCP ajH35wXMu3RmhcDx0b/7/wDfG/lvaq0vNQWAR99fznva/b0CPhyzXz6XVbj3D/DdAPARle5IO9Vb AP0gsIyvy91sH3wo/tr/AN8f/X9Epd3lKXcAjoWA3IrYvIB98V+H9j/AdwNAzvyvdpT3bLPY79m/ rOR7yZFvfoBTDAHL2K+UWIf2P8B3R/9vAsDlkeavykaa2RFYFB/mVG4JzGO/dXKO/gUAgNsDQG75 W+0gsoZR96Ky92RWFMIsgrmEY+wTBGfFyP/Zt2UAWrWNffu/6pVlzw4As4oLTblKIJfDZRAY43LB eUS8dAFgqfgDfHv0/9m9qu4c19IBqLnYZEjJCYKLrhNQfbq78TNYK/4AgwWA6uuDAHBbN6CcJPhe BIFWJwrmz/PSvVbOXYAf2QgAtxWglgpmbiO8jMMSj3zAw66xnyUnYK4b+xwAahz5RzTUHX52AGh5 olkW0GU3ei6DwLby7zu/Z5P9AIbVTFf4mQGgnADYYgGa9d7HXDWQkz9y96daDoRF932uule5+6IA APBzm+7VRDe4hgDQullRYHOi4KoIA5veQbF90Pc0i68TF5fFrxV+gPuM/gWAK4vU2LaZ7RfeVVH8 t8XXfO3i6yZDuxv+nv7fWf7d8+J7KL+22m0BqFlex5uaFK4D8JgwsCpG/6deuyOB4NT/c9Yr5ote 8V8c+TMA3DcENDUZ/NmTAKf0oJkMPIsTyXEX190iOBUCFHqA58kurwCgA/CtbkF4TwCaHP3XNOm7 +gDgQTNG7gBjCQCt7QXztADg/jQAY+sANBUAnnUPfowrAACYZvHPANAUAQAAfiZXcwkAAgAAE+oA CAACAAATDQC71r5xAQAAfhYANi1+488MAFYAADCGALBr8RvXAQCAnxX/bYvfvA4AAHxfkxMABQAA +HkHwC0AxR+AiQYBAUAAAGCCXQABQAAAQPEXAAQAAMYeAgQAAQCACXYA3AIQAAAw+hcAzgUAABiD bavfuA4AAEzQMzcCAoCWWQWgAwDARAOADoDRPwBCgAAgBACg+AsAij8A6AAIAQDoAugAAADT6AAA gNH/BAOALgAA6AAAgC6AAAAACv/oAoD2PwBjCQE6AEIAALoAAgAAIAAAAAIAACAAAADTCAA7bz0A TCsAKP4AMNEOAAC0rukl7QIAAHyv+M9aDgHmAADABLsAOgAAMEEmAQKAACAEAIAAoPgDwClWAQgB AAgBAoDiD4DiLwAcDQBCAABMLADoAgCADgAANMlOgEb/AEw4BAgAOgAAKP4CgAAAgBAgAAgAACAA AED7o38dAAEAACFAABAAAFD8BYC/fEbEuzAAgAAwvQDwGhEfRVcAAHiQ5ZP+3m1EvBWFf1mkKQBo rRPQ3EB28cS/excRmy4MLOLQjRACAGjFJvbdbAHgm2/ervteFgIAAA3ZdgFg29o3vqzk+3iPQwtl LQQA0JAma1YtAWDXhYC0bvlNBUDxFwCuty1CwCwiVl0wEAIAqLn4z1v85peVfT/9ELB0fAFQeQho cqC6qPB72nVBYNcFgKY3WgBg1Hax39vmUwAY7g3ddIV/IQQAUKltV/w/BIBhbWJ/b6XcJwAAahuw vgsAw7+xu14nAAAEgJEHgDIEzIUAACokANw5BOT3u3CsAVBRfcoVbE1tB9zKMrt8c8sugE4AADVo sia1NJrOlDUvvm8hAIAaBqlvrXUAWmunZwhYdkFAAACghtrU3AOBFo2+0fm9CwEA1BIANi190/NG 3+j3aPTxiwCMyqz42tSAtNXNdXLJxWc0ds8FgFGGgObqacu7631Egy0XAEbdCRAAHiCXBn7oAgCg AzCdABCxvwXwrgsAQAX11ByAB9oVIQAAntkBEAAezIRAAGoIAU0FgDHtqz+Pw9bG9gYA4JFyiXoz A9H5SN743IbRvgAAPKsD0FRNHUsAyLkAbgMA8KwAYA7AE7sA77oAADyxA9BMCJiP7APIJYFCAACP LP4hADzXJjwjAAA1dXIBIGI/D2Ab5gIA8PiaqgPw5ACwEQAAEABOW47wA9h2IWBVYcC5Ryix5wFA HWbFq/pB6BgDwC4OEwF3DyqQu2/82V3vv9tdcWCVB1jccJAJCQCPCQDNdNaXI/0QNt1r9eDgka9t 8TUnJJa/1w8AtxTx/mzTY1/n0ejTqQB0AASAn9jGYR7AUKPf3ZFCXr52Vxb5W0b9l0bzsxPdgTII 5GvRCwc6AwD36QA0cW0dawAobwPMv/HfxomR/KmC33/d+2e7JkCcCwPHAoFuAcDPin8IAHUEgOwC LK/4s8fa95vi/9EPArtG3oP8PjdHQsGieOkQAAwXBASAJyvvvx8b3UevqG/isIfApje6H1MwOhYK 8kmKy14wmEWD+1sDPJFJgJUUu/5+AGVnIAv+Z0x7++Bd8X68dcV+GfsJlKsiFPQTLgDHOwBNhIAp BIAs7p/Fq3/vnq/v20f3Pr0WnYF199VcAYDzHYAmVgIsRl7I8jHBb7F/UFAWf1sFX/8eZsfko3j/ ItwaALg0iKraYgIfRLkkUNH/2ftY3j4pg0AIAwD/K7vNOgCMMlCVQWAXJgwCpI0AwNjDQB7k/WWG oSsATNQsGplcLgBwryAwFwSAidr2rokCAJMIAh/d13JLTAEAmFoAyIGRAMCkgkCZfpvaGxtgoOvg pwDAlBNw/6FMggAwlQCgA4BuQHzdltlqAWAKql8KuPQZ8YAQkLcDclbsugifggDUed5e+r1bCtvs wj9f++9a0UTHUwDgkReUcjfGFyEAqiry/eemlJun7U78fhz5b05tF35sZVB/2fC57uA114mariXV dzoFAB5tGxH/dkHgd+wfOCQAwHMCQP82Xf9V/plrRv+7Gwv47Mgr4usKohxNz4/8uZpvKc6j8men CAA8sxuw6zoBZTcAuG+hL2/HlYV+e6IT8NPOwrX/r9mF35udCA0RX/cemZ8IFrMTI/PZDd/DNZ2T crBTNQGAZ16UPoqLU4YA3QAYpuCXT0TtF/1d1PdE1N2VvxcnQkGcKfCzE78+9zXOXI+O3S7p/zqX QwsAcGUIWAoB8KNR/uZE4R/jA9F23+hUnCvw105WvKYLUP17LQBQg8/iAvVLCICbCl/Z2s+lZ2XR 53KxniQXWWoy7wJAjSFg55yiouMwi3tuv/2h6KMDQMu2EfHa/fpX7FcI1HbxPbY0qpypDPc+Bj+7 gl8uqwUBgFGEgLeisD76GD03Y3oXx++llgFgFYeNjnQDGOp4LEf6nzHee/oIAEzcpgsBs64TcK9i WrZTN3F8idTuzMg/joSAvP9qLgM/PTY3ReH/7B2XIAAwmRAwxLaaZcHvj/BPFf3vdA5mXRdgJwDw zdH+Z5jQhwDAhH3Gfk7Aoiuo8Y2Cuou/l0iVjyse+uI6784rTz7klmN0WxyX/RE/CABMNgT8KQrr tUW1fy//oxhR3auNOo/9Xgb/hDkA3D7if4/DbH4QAKC7MJaj6ms258h7p+/FaOqeLdQs/v8x+udC 0S+P0ffY3+r6CC1+BAA46q0bVV96bkBeVMslUve+sJYjf0sBuSRXupThlPs5ty1wP5wdm+g72mAm ANCKclLgS6/QZqv/oxhNPWrS1Cz2S/88y4BLI/+yK/XIY3RKhX5+5HXqoUCnPqdjjz7envja9FJM AYCWfBQn+bo4ST97o/5HnpBZ/D3WmHPhtbzH/+hjdKzFftaF7nnx9VTRjzMj/zgx2j8WBPqh4NTj k5sIBgIArY2iMgTkErv+VqiPlKsT1qH1z/FC8nlk1M/Pin4W/EVXwxZF0Z9fUeQv/R3XfLbXhIFj waC6NxRavBDkSb+J59xDnUXE77DhD6cLxGfsdqOWEwAADshJREFUb0m9hfv8Pz3X5kXBz1c52q8p 9OXtniH3GREAoKIL0jIi/hta/xwv/h8R8W+Y3f9TWfTX3bm2iPa6beUeJMc2eHoatwDgdvPYz/h3 /tCXM/z/dBd5vn+OrWM/v2YMG2tlt2IVhw2fsjv0tBDgAga3n8gv3cXp0oxipmUT+50rXxX/H4/4 s/CXK2tmIzg+ymc7PP1JjgIAXK9c8qf4c2zk/6b4/+jcOtbqb/U8K1v/Wfjvsf24AAAPGp2snTf0 LvIRhz0oFP/vnVf94j9r/Jgo7/mXz3aoaj6ICxlcZ15cpCz549jo3/r+20f9GarHsJqmfLZDfxvy KgkAcP25so7z2xAzTbkPhTX+txX/ZVf4f0Xbt9TK5X8fsZ8D0sRDnQQAuG70n+1J6F/8nz6Zq8Hi v479PhpjWUZbTgBtZs8HAQAuW3UvT/nj3AiQ64p/jvqX0f5k2m3sW/056m8qCAoAcF75BELFn1NF jduLf+tzafIBZc0+zlkAgPMXrNVILlbc7xjJ48NtgNNy/4zfMY7JfjnxM/d82LX6oQBG/3xfeYuI 43VmPaLiv4uvbX+PA4YRXrSWYa9/LncAFrFva2dh2N7p77mmONX4/pQT/lpWPudhFFs9CwBwOgC8 GNVxQxcgw0Cu//5uQZ5d+YoibPQfP1uLXOM/hhU0ueIjH/LUPAEAjhf/dfe6dvSFTsCyCI7l0976 j3+dnSj08ysK/qXRabkD3Xs8d0labps9hi5abvDzOpbiLwDAcYvQ+ud7ISCf+rY4Uvh3RwLl7Mrf uxREy78jb12tYj9R7T0ef3sgb4usR3Ie5XK/Z7yXAgA8cPS/jPYnK/G8EHCqWO+uKORD/b2L+Dp5 9ZGFa1YU/zHsnZH3/Z/dUREA4EGjf1v+cq8i/cgwu46vtwUe8TNm638sq2e2cXigz6gIAPD3OWH0 T6sj1fxa/jpvTTwqQP8eUfHPiX+j3O5ZAICvF6+l0T8NF/8crebDaB65MiD3zXgZ2XvbxIN9BAAw +meacpJaf1vaR933z9sNv0b4vta2tFIAgIGVy7gEAFryGfvlaW/dSPUZs9RXcXhc9pjOn12MeItn AQAOAWARNv6hreK0K0b+z5qktozD47JnI3yPR8vFDg4BwPlAa7L1/6x71POi+C9Gel0QAGACAWAW 2v+0JZf3PWukuo79pL/lyK8LAgBMIABAK3J72mcV/2XsJ/2NeeLsqAcGAgAczgUBgBZDwDMsIuKf GP+W2eXkYAEARhwAQgigwQL1jOJf7vM/hQAwyr1BBADQAaDtAjV78HmS9/2ncs4sxtoFEADACgDa Pm4fVYTL4j+lJeTz2N/qWI7xBwMXUh0A2r2Gzx50juRDfvK+/2xC14dlHB5wJADACE9yaM3iQSEg Z/yvJ1o38imhawEAdACglmP33tvvLmM/43898XMkQ9BKAIBxXUQVf1o9bu85QS2L/8p5cvT9aP6H AaN/FzaeJ/f038TXjWeuLbj3eIbFLP5u+89cKyK692MbEX/iec9fEABAB4CR2Mb+gT7brtjOi6I7 PxEKZkUAyNsAu4HOh5z0NqXlfreEgFF0zwUA+PuCCs/qBLx1X2e9IJCvxZFQUP75zQDnQhb/XzHS DXB++BntIuIjRvCYYAEAxd9cGJ5/DC66ovsR+7by9kiBmfWCQY785zHclsDZ9h/dkrczBf2Wf5+P X34VAAAYyqorvqfuLefo81gwuKaYXbKOiN8x3dn+uyOvDGLlr9/HUPwFANhzj5MaugC7buS9OdEB +O4o9prjP4v/MsY3Jybfn23v1S/w/Vcc+fUQ77cAAJVdfKGWMPrywJHmMr5u7zum4p8rK8rbKrte we8X+VEVeAEALhd/AYCagmjeh484TAq8R9DI4r8uasGYiv9nfL1fv5tScRcAANrsAqzifjPOc1vb 3Nd/jJP98n17jcbX6gsAANMLAbkBz58Y5nZArhzot/zHKEf/G4eSAADQaidg0YWAt2+OZstlhrm2 f6yFf1cEgE1o+QsAAI0Hgdx//j32re3NhY5A7hew7P671chH/H2X3h8EAICqlbtUZjdg3RW4LHI5 V6DcKGjR+zq1pa5G/gIAXHWhcLGglU5AFvX+krYyLJx6dgAIAHAiBLhQ0kpXwB79l98jBAC4yL1C GFfht7vnFTwEBaP/EW7xCRO3UN8EALi2A6D4gwAgAMDEOgACAIyvti3VOAEArukA2DQExlXbFmGy pAAAVwYAYBxmXQfARPczpCM4nAtjfBY6TDkE5FMBdfd0AOCkfF44MJ76llshowMAZy3D7GEYWxcg Yv/8BF0AAQCOyp0Ac+aw2wAwHtv43pMUBQCYUAiY6wLAqDoA+fKEQAEAzgaAvGiM+ZnpMDXz2D9K WQAQAOCqEDAvfu192V88+5smeW9owSYi3gQAAQAuySJXbiQy5UK3Ky6gb92v8zaJAEDtx+5nRPzp jl0EALgqBCh0X0dQr91FdBcR63CbhPpl8f/jrfibiU5weuTwERH/L9w77FP0aaX4vxr5n2abRLgc AtIqpts1Kx+bDK0Uf+FdAIAfh4DcVnQ98RAAtR+j5XwVa/8FAPjxReW9KIAv4ZkBcGtAnD3g7992 hf9V8RcAYOhOQF7IXuKweyBMudiXt4d2F4r/7EIgmP3g+1H8BQB4SCdg4fxh4nJ73c847LK3PVHU c1+N/Np//bSjlsX/3/BobwEA7uizu9D8JyyFY3pFf9MF4ffu17sjHYFzo/rZmWCwOBEO4kxI2BQj f8VfAICHdALWcdg2GMZuE/vbYNli38Z1E0N3F/65X+D7r34YKL9uu+/JhD8BAB46EvoIzxpnWsd7 Lq0bckXINfMHysI/6wWATdGJQACAhyhHQW4DMPZj/e0Oxf/agJCT/BAAoAouSkzhGI8nFn/uyFbA AJyT9/6FXQEA6Ex1MyCbIE3Lp+IvAABfLSZ+DgkB45eP09X6FwCAovgtw6OCGXfxz731BQABAChG /0vFn4kEAQQAoCv6awEAAQABAKY3+v8V2v+AAACTKv4vYQ8NQACAyciJfy/FP8PYj3l1QgAAo//Y 7/0/xYf/9J/4xjSKf34VdkdIGxNuG/2vJhicFX4DRXywMOlzZSk0M8Hgu9ABEABgylYTHf2D1S4C AEz6PFlNfPRvDsB06QAIADDp0b9Nf5hynRACBACYnFkcZv5P+QJYdgAUgumdA24DCAAwOfb8/7v9 rxBMq/jnRED1QgAAo3+8HxOzVC8EAJhakVuH9ucuTAKcuoXzQACAKRX/3PnPRU/xVyvcBhgdm5rA 6QCg+H/tAPDc8LU78zp1DPe38+2/bq0X84jY+EgEABj7iGcV9kE/1gHwftz/vd72Xpvi93e9UBAn QsC54j8/8nVejPBnR/5fOSH2w0ckAMCYR/8L54cOwIPf3yz0+XVTBIBrRvzXHNdxIQwsemGgvO+/ KP791scmAMCYA4D7nccDgA7AsCP9LPafRwr/0H9fxPlbBmXhX/SKfvn7AoAAAKOUD/4RAKwAuMf7 mV8/Y99Oz9e2gu8tA0g/DOeTMHcCoAAAY5ajHvb6o1HzIr5f+KMrsG/d67PycJVB5bP7fn3uAgCM VnkvlOMdAEXg+0HqvSukNYz4v3ssIADAKHnwyd8X/a0L/yCj6Bz1b7yfCABQZwCw49n5DgC3vX85 6n8Pa+gRAEAAaIT7/98v/BH7Vv9rV/zNnKe6ix3wdwDgeAAIAeDq4v8ZEX8Uf3QAoH7W//9dyE7d /xcCztt0xf8t3D5BBwCaGf0rbocAsIm/bwG4bpxXzvZX/BEAQABospAd6wCYB3D+PcsZ/9r+CADQ 0PmguB3krnBGsbcFgNzZDwQAaIT7/38HgK3R/9XK7X2FJqpnEiD83QFQyA4B4Fj7n9Oj/9w2F3QA oBEzAeBoMXP//3rlk/xAAICGAoDC9ncx2wlJN79nIABAY+eC4ra3i9P3sWfC0lFbAQABAHQAWi/+ 2zMBwDXj/Ptm8h8CADgXmi1kmzh9/9/7dLoDIADgogcNdwCm3gXIpWybM+8TpwMACADQ4Lmg+B/a /64ZtwcAo38EAGh09D91Zfv/1PskKB1nx0SaYyMgEIbLUexHnG//K/5/hyYdAFz0oPEOwJSL27Wj f9eM48FJBwABABoOAVMvYpe2sdX+P/3e7QQABAAQAFod/X/E6ZnsuiSn2f6XJpkDAIpb7vz3eeE9 WggAJ8OT0T86AKAD0JzthdF/vj+uF6c7AAIAAgAo/s15v6KICQDHR/85ARCa4xYATLuAbYoAcCkk CQB/swUwOgDQ8Oh/ivf/c9b6exzf9/9Y8Xe90AFAAIBRXsynZhMRb3F5BrsdAE8fM59h9E+j3ALA Rfzr/vfzCXQFyp/5mgKmA/D1vdsVxf/DW4IAAG2PhP8n9svcVhGx7s6N5YliOKXRf4aixUSLfV9u lvQe57dNBgEAGiuK264wZtHLILAaURHcFAXsGlMe/ecGSVn4y01/tP4RAGCEo7680H/GoQW+KEJB /rq1WwXZ+n+/oYBNIQBkW38Th2cibIrjoGz9gwAAEykKURSFefFanPgaFYeCbF9/3lD8FyMLAOUT /DbF1/x1+VLwEQCALyPEfoFcFIUyX7Pe12fLdvbHN0b/Lc99yEJefj1V/EEAAK4uLuUqgugFgvI1 K7oD/VsH9yywWeyz9X/LxLX+917ziD5/XXZujrX1rd0HAQDuNtLuF5hZfJ07sLihuM4G+p7e4vZl a7W0/3cX/l1Z6De9oq+NDwIAPLWAZfu9P/Lv30Iovw418n6N21r/5fc2q+g9LEfw216x310ZGAAB AJ4+ms170rnaoLw10J9D0H+V//5Ukd7Gvu3/Fre3vRcP6gDs4vg9+v5kvHJS3i7MzAcBAEYSCnZn RuLfeeX/9y2un/Xfvz7Mz4SXODHq3l349XdfwIDs7Q3jOp/7r2ybf6eA5q6Il0JAv/hHHJ+Mp7AD AAAAAAAAAAAAAAAAAAAAAAAAAAAAAAAAAAAAAAAAAAAAAAAAAAAAAAAAAAAAAAAAAAAAAABM1/8H zMK5dKNkAbIAAAAASUVORK5CYII= "
               id="image10"
               x="-6.5949421"
               y="9.6046572" />
          </g>
        </g>
        <g
           id="g3761">
          <path
             sodipodi:nodetypes="ccccccccccccccccccccccccccsccccssc"
             inkscape:connector-curvature="0"
             id="path6"
             d="m 156.28531,83.217155 c 0,7.55355 3.33482,14.269785 8.5366,18.957295 v 49.46881 c -9.24554,0.0736 -16.70693,0.27447 -25.37634,2.26754 -9.1141,2.09438 -17.3066,3.87368 -17.3066,15.25576 l 11.93788,7.9531 c 0,0 6.24968,-6.9818 11.97123,-7.9531 3.31211,-0.56184 6.82944,0.1114 10.23723,1.3839 v 74.8619 l -25.60976,25.6097 25.60976,25.6097 v 98.9544 l 25.60976,29.0944 25.60975,-29.0944 v -224.9023 c 3.52288,-1.2859 7.09723,-2.05021 10.23724,-1.5173 5.72154,0.9712 11.97122,7.9531 11.97122,7.9531 l 11.93788,-7.9531 c 0,-11.38208 -8.19248,-13.16064 -17.30659,-15.25576 -8.6893,-1.99739 -16.14826,-2.18676 -25.37633,-2.26754 v -49.46881 c 5.20177,-4.68742 8.53658,-11.403745 8.53658,-18.957295 z m 104.16746,79.212095 c 3.42008,5.17834 -4.74069,0.59592 -4.74069,6.72061 -10.13523,6.1644 -0.57832,9.0855 -3.92373,12.3047 14.02891,9.7733 24.00916,27.4527 24.00916,44.8839 0,32.3053 -18.00948,35.1459 -51.21953,44.6836 19.9303,48.7202 59.65143,91.829 98.9377,114.1435 33.51758,20.2629 59.43964,28.1304 101.14791,33.1251 -46.06078,-56.2248 -113.00049,-74.5847 -148.86608,-130.1954 23.96864,-12.5693 51.21951,-23.423 51.21951,-64.9581 0,-33.6946 -41.24969,-82.00836 -53.58709,-71.62726 z"
             style="opacity:0.2;fill:#501616;stroke-width:8.53658485" />
          <path
             inkscape:connector-curvature="0"
             id="path8"
             d="m 156.28531,160.04639 h 51.21951 v 226.99567 l -25.60975,29.1019 -25.60976,-29.1019 z"
             style="fill:#501616;stroke-width:8.53658485" />
          <path
             inkscape:connector-curvature="0"
             id="path10"
             d="m 165.6889,142.9733 v 0.10048 c -9.68673,0.0736 -17.28375,0.24131 -26.24333,2.30089 -9.1141,2.09437 -17.3066,3.86979 -17.3066,15.25189 l 11.93788,7.95624 c 0,0 6.2497,-6.98509 11.97124,-7.95624 6.54751,-1.11134 13.87188,2.60455 19.64081,6.23571 v 5.13519 h 7.66957 17.07318 c 0,0 16.38323,-13.22562 27.31041,-11.3709 5.72152,0.97115 11.97122,7.95624 11.97122,7.95624 l 11.93788,-7.95624 c 0,-11.3821 -8.19248,-13.15752 -17.30659,-15.25264 -11.35014,-2.60906 -19.24721,-2.23871 -33.91292,-2.4009 h -17.07318 z"
             style="fill:#501616;stroke-width:8.53658485" />
          <rect
             id="rect12"
             transform="rotate(90)"
             y="-198.96825"
             x="84.924454"
             height="34.146339"
             width="68.292679"
             style="fill:#501616;stroke-width:8.53658485" />
          <rect
             id="rect14"
             transform="rotate(45)"
             y="67.575684"
             x="288.58691"
             height="36.22073"
             width="36.22073"
             style="fill:#501616;stroke-width:8.53658485" />
          <path
             sodipodi:nodetypes="cccsccccssc"
             inkscape:connector-curvature="0"
             id="path16"
             d="m 267.83201,155.4869 c -0.95639,5.48202 1.71901,8.98727 -12.11993,13.66296 l -9.38215,5.4113 c 14.0289,9.7733 29.46758,25.8095 29.46758,43.2407 0,32.3053 -30.7894,35.146 -63.99942,44.6836 19.93026,48.7202 70.54866,94.8412 109.83494,117.1557 33.51757,20.263 58.9528,35.4027 103.29682,34.3729 -46.06079,-56.2249 -122.68004,-74.3264 -149.13234,-134.4554 23.96864,-12.5693 51.21951,-23.423 51.21951,-64.9581 0,-33.6946 -62.64313,-77.88194 -60.50954,-66.30228 z"
             style="fill:#501616;stroke-width:8.53658485" />
          <path
             inkscape:connector-curvature="0"
             id="path20"
             d="m 207.50482,74.680565 c 0,14.14387 -11.46587,25.609785 -25.60975,25.609785 -14.14387,0 -25.60976,-11.465915 -25.60976,-25.609785 z"
             style="fill:#501616;stroke-width:8.53658485" />
        </g>
      </g>
    </g>
  </g>
</svg>
